T [C] (\pm 0.1),T [K] (\pm 0.1),T^(-1) [K^(-1)] (\pm 0.1 K/T^2),A_1^(700),A_2^(700),A_1^(520),A_2^(520),A (\pm 0.004),\varepsilon [L mol^(-1) cm^(-1)],p [Pa],Fastar,gildi,ln(p) (\pm 0.1 K/T + 0.004/A)
25,298.15,0.003354016435,0.183,0.196,0.355,0.336,0.032,686.5,1.16E+02,8.31E+04,4.749724004
30,303.15,0.003298697015,0.184,0.195,0.361,0.335,0.037,682,1.37E+02,8.31E+04,4.918113598
35,308.15,0.003245172805,0.185,0.195,0.374,0.333,0.051,677,1.93E+02,8.31E+04,5.262738648
40,313.15,0.003193357816,0.186,0.194,0.387,0.333,0.062,672,2.40E+02,8.31E+04,5.481555964
45,318.15,0.00314317146,0.188,0.194,0.416,0.332,0.09,667.5,3.57E+02,8.31E+04,5.876790861
50,323.15,0.00309453814,0.194,0.192,0.457,0.331,0.124,663,5.03E+02,8.31E+04,6.219620798
55,328.15,0.003047386866,0.198,0.191,0.493,0.33,0.156,658.5,6.46E+02,8.31E+04,6.471359918
60,333.15,0.003001650908,0.202,0.191,0.534,0.329,0.194,654,8.22E+02,8.31E+04,6.711341258
65,338.15,0.002957267485,0.208,0.191,0.583,0.329,0.237,650,1.03E+03,8.31E+04,6.932574973
70,343.15,0.002914177473,0.214,0.191,0.645,0.328,0.294,646,1.30E+03,8.31E+04,7.168945544
75,348.15,0.002872325147,0.22,0.19,0.716,0.327,0.359,642,1.62E+03,8.31E+04,7.389365117
80,353.15,0.002831657936,0.227,0.189,0.808,0.326,0.444,638,2.04E+03,8.31E+04,7.622376786
